{
  "Госпитализировано больных - всего, человек": {
    "2005":"691930",
    "2006":"691930",
    "2007":"818760",
    "2008":"827915",
    "2009":"827915"
  },
  "на 100 населения": {
    "2005":"13,5",
    "2006":"14,7",
    "2007":"15,7",
    "2008":"15,7",
    "2009":"16,0"
  },
  "Выписано больных - всего, человек": {
    "2005":"684977",
    "2006":"753618",
    "2007":"810685",
    "2008":"820477",
    "2009":"859559"
  },
  "в том числе детей 0-14 лет": {
    "2005":"168610",
    "2006":"186082",
    "2007":"206908",
    "2008":"203107",
    "2009":"218986"
  },
  "Умерло больных - всего, человек": {
    "2005":"6953",
    "2006":"7588",
    "2007":"8085",
    "2008":"7438",
    "2009":"7358"
  },
  "в том числе детей 0-14 лет": {
    "2005":"3389",
    "2006":"3689",
    "2007":"4054",
    "2008":"4054",
    "2009":"3660"
  },
  "Среднее число дней пребывания больного на койке": {
    "2005":"11,7",
    "2006":"10,9",
    "2007":"10,4",
    "2008":"10,1",
    "2009":"9,8"
  }
}