{
  "0": {
    "2005": "5189,2",
    "2006": "5247,6",
    "2007": "5289,2",
    "2008": "5348,3",
    "2009": "5418,3",
    "city": {
      "2005": "1796,5",
      "2006": "1804,5",
      "2007": "1810,5",
      "2008": "1823,3",
      "2009": "1846,8"
    },
    "village": {
      "2005": "3392,7",
      "2006": "3443,1",
      "2007": "3478,7",
      "2008": "3525,0",
      "2009": "3571,5"
    }
  },
  "1": {
    "2005": "804,9",
    "2006": "813,3",
    "2007": "822,1",
    "2008": "832,5",
    "2009": "846,5",
    "city": {
      "2005": "801,1",
      "2006": "809,6",
      "2007": "818,4",
      "2008": "828,9",
      "2009": "842,8"
    },
    "village": {
      "2005": "3,8",
      "2006": "3,7",
      "2007": "3,7",
      "2008": "3,6",
      "2009": "3,7"
    }
  },
  "2": {
    "2005": "255,8",
    "2006": "255,7",
    "2007": "257,0",
    "2008": "258,0",
    "2009": "259,1",
    "city": {
      "2005": "231,7",
      "2006": "231,5",
      "2007": "232,8",
      "2008": "233,8",
      "2009": "234,6"
    },
    "village": {
      "2005": "24,1",
      "2006": "24,2",
      "2007": "24,2",
      "2008": "24,2",
      "2009": "24,5"
    }
  },
  "3": {
    "2005": "415,3",
    "2006": "420,0",
    "2007": "422,3",
    "2008": "427,1",
    "2009": "433,8",
    "city": {
      "2005": "103,1",
      "2006": "103,7",
      "2007": "103,1",
      "2008": "103,5",
      "2009": "104,6"
    },
    "village": {
      "2005": "312,2",
      "2006": "316,3",
      "2007": "319,2",
      "2008": "323,6",
      "2009": "329,2"
    }
  },
  "4": {
    "2005": "970,0",
    "2006": "983,9",
    "2007": "992,2",
    "2008": "1006,8",
    "2009": "1023,1",
    "city": {
      "2005": "226,1",
      "2006": "226,9",
      "2007": "225,6",
      "2008": "227,6",
      "2009": "231,2"
    },
    "village": {
      "2005": "743,9",
      "2006": "757,0",
      "2007": "766,6",
      "2008": "779,2",
      "2009": "791,9"
    }
  },
  "5": {
    "2005": "430,4",
    "2006": "433,1",
    "2007": "435,1",
    "2008": "437,7",
    "2009": "441,3",
    "city": {
      "2005": "123,4",
      "2006": "123,9",
      "2007": "124,6",
      "2008": "125,6",
      "2009": "127,2"
    },
    "village": {
      "2005": "307,0",
      "2006": "309,2",
      "2007": "310,5",
      "2008": "312,1",
      "2009": "314,1"
    }
  },
  "6": {
    "2005": "257,0",
    "2006": "257,3",
    "2007": "257,0",
    "2008": "257,2",
    "2009": "259,4",
    "city": {
      "2005": "41,8",
      "2006": "40,8",
      "2007": "39,7",
      "2008": "38,9",
      "2009": "39,0"
    },
    "village": {
      "2005": "215,2",
      "2006": "216,5",
      "2007": "217,3",
      "2008": "218,3",
      "2009": "220,4"
    }
  },
  "7": {
    "2005": "1057,7",
    "2006": "1074,9",
    "2007": "1084,7",
    "2008": "1101,2",
    "2009": "1117,9",
    "city": {
      "2005": "86,5",
      "2006": "87,1",
      "2007": "87,0",
      "2008": "87,5",
      "2009": "89,0"
    },
    "village": {
      "2005": "971,2",
      "2006": "987,8",
      "2007": "997,7",
      "2008": "1013,7",
      "2009": "1028,9"
    }
  },
  "8": {
    "2005": "218,4",
    "2006": "221,5",
    "2007": "223,8",
    "2008": "226,3",
    "2009": "229,0",
    "city": {
      "2005": "34,2",
      "2006": "34,0",
      "2007": "33,8",
      "2008": "33,7",
      "2009": "34,0"
    },
    "village": {
      "2005": "184,2",
      "2006": "187,5",
      "2007": "190,0",
      "2008": "192,6",
      "2009": "195,0"
    }
  },
  "9": {
    "2005": "779,7",
    "2006": "787,9",
    "2007": "795,0",
    "2008": "801,5",
    "2009": "808,2",
    "city": {
      "2005": "148,6",
      "2006": "147,0",
      "2007": "145,5",
      "2008": "143,8",
      "2009": "144,4"
    },
    "village": {
      "2005": "631,1",
      "2006": "640,9",
      "2007": "649,5",
      "2008": "657,7",
      "2009": "663,8"
    }
  }
}